{
  "usuarios": [
    {
      "id": "1",
      "nome": "foo",
      "cpf": "213.123.123-45",
      "email": "foo_bar@email.com",
      "endereco": {
        "cep": "13454000",
        "rua": "rua talvez",
        "numero": 785,
        "bairro": "bairro azul",
        "cidade": "cidade eterna"
      }
    },
    {
      "id": "2",
      "nome": "foo",
      "cpf": "213.123.123-45",
      "email": "foo_bar@email.com",
      "endereco": {
        "cep": "13454000",
        "rua": "rua talvez",
        "numero": 785,
        "bairro": "bairro azul",
        "cidade": "cidade eterna"
      }
    },
    {
      "id": "3",
      "nome": "foo",
      "cpf": "213.123.123-45",
      "email": "foo_bar@email.com",
      "endereco": {
        "cep": "13454000",
        "rua": "rua talvez",
        "numero": 785,
        "bairro": "bairro azul",
        "cidade": "cidade eterna"
      }
    },
    {
      "id": "4",
      "nome": "foo",
      "cpf": "213.123.123-45",
      "email": "foo_bar@email.com",
      "endereco": {
        "cep": "13454000",
        "rua": "rua talvez",
        "numero": 785,
        "bairro": "bairro azul",
        "cidade": "cidade eterna"
      }
    },
    {
      "id": "5",
      "nome": "foo",
      "cpf": "213.123.123-45",
      "email": "foo_bar@email.com",
      "endereco": {
        "cep": "13454000",
        "rua": "rua talvez",
        "numero": 785,
        "bairro": "bairro azul",
        "cidade": "cidade eterna"
      }
    },
    {
      "id": "6",
      "nome": "foo",
      "cpf": "213.123.123-45",
      "email": "foo_bar@email.com",
      "endereco": {
        "cep": "13454000",
        "rua": "rua talvez",
        "numero": 785,
        "bairro": "bairro azul",
        "cidade": "cidade eterna"
      }
    },
    {
      "id": "7",
      "nome": "foo",
      "cpf": "213.123.123-45",
      "email": "foo_bar@email.com",
      "endereco": {
        "cep": "13454000",
        "rua": "rua talvez",
        "numero": 785,
        "bairro": "bairro azul",
        "cidade": "cidade eterna"
      }
    },
    {
      "id": "8",
      "nome": "foo",
      "cpf": "213.123.123-45",
      "email": "foo_bar@email.com",
      "endereco": {
        "cep": "13454000",
        "rua": "rua talvez",
        "numero": 785,
        "bairro": "bairro azul",
        "cidade": "cidade eterna"
      }
    },
    {
      "id": "9",
      "nome": "foo",
      "cpf": "213.123.123-45",
      "email": "foo_bar@email.com",
      "endereco": {
        "cep": "13454000",
        "rua": "rua talvez",
        "numero": 785,
        "bairro": "bairro azul",
        "cidade": "cidade eterna"
      }
    },
    {
      "id": "10",
      "nome": "foo",
      "cpf": "213.123.123-45",
      "email": "foo_bar@email.com",
      "endereco": {
        "cep": "13454000",
        "rua": "rua talvez",
        "numero": 785,
        "bairro": "bairro azul",
        "cidade": "cidade eterna"
      }
    },
    {
      "id": "11",
      "nome": "foo",
      "cpf": "213.123.123-45",
      "email": "foo_bar@email.com",
      "endereco": {
        "cep": "13454000",
        "rua": "rua talvez",
        "numero": 785,
        "bairro": "bairro azul",
        "cidade": "cidade eterna"
      }
    },
    {
      "id": "12",
      "nome": "foo",
      "cpf": "213.123.123-45",
      "email": "foo_bar@email.com",
      "endereco": {
        "cep": "13454000",
        "rua": "rua talvez",
        "numero": 785,
        "bairro": "bairro azul",
        "cidade": "cidade eterna"
      }
    },
    {
      "id": "13",
      "nome": "foo",
      "cpf": "213.123.123-45",
      "email": "foo_bar@email.com",
      "endereco": {
        "cep": "13454000",
        "rua": "rua talvez",
        "numero": 785,
        "bairro": "bairro azul",
        "cidade": "cidade eterna"
      }
    },
    {
      "id": "14",
      "nome": "foo",
      "cpf": "213.123.123-45",
      "email": "foo_bar@email.com",
      "endereco": {
        "cep": "13454000",
        "rua": "rua talvez",
        "numero": 785,
        "bairro": "bairro azul",
        "cidade": "cidade eterna"
      }
    },
    {
      "id": "15",
      "nome": "foo",
      "cpf": "213.123.123-45",
      "email": "foo_bar@email.com",
      "endereco": {
        "cep": "13454000",
        "rua": "rua talvez",
        "numero": 785,
        "bairro": "bairro azul",
        "cidade": "cidade eterna"
      }
    },
    {
      "id": "16",
      "nome": "foo",
      "cpf": "213.123.123-45",
      "email": "foo_bar@email.com",
      "endereco": {
        "cep": "13454000",
        "rua": "rua talvez",
        "numero": 785,
        "bairro": "bairro azul",
        "cidade": "cidade eterna"
      }
    },
    {
      "id": "17",
      "nome": "Jhess",
      "cpf": "213.123.123-45",
      "email": "jhess@email.com",
      "endereco": {
        "cep": 13454000,
        "rua": "rua talvez",
        "numero": 785,
        "bairro": "bairro azul",
        "cidade": "cidade eterna"
      }
    },
    {
      "id": "32",
      "nome": "Elias",
      "cpf": "213.123.123-45",
      "email": "elias@email.com",
      "endereco": {
        "cep": 13454000,
        "rua": "rua talvez",
        "numero": 785,
        "bairro": "bairro azul",
        "cidade": "cidade eterna"
      }
    },
    {
      "nome": "jhessinym Mattos",
      "cpf": "155.798.387-94",
      "email": "jhessinymattos@gmail.com",
      "endereco": {
        "cep": "22233-888",
        "rua": "12212",
        "numero": "2",
        "bairro": "Pinheirinho",
        "cidade": "Curitiba"
      },
      "id": "45dceffc-9d39-45c0-bed2-0c3204813e71"
    },
    {
      "nome": "vaga-2sow-usuarios",
      "cpf": "155.798.387-94",
      "email": "jhessinymattos@gmail.com",
      "endereco": {
        "cep": "22233-800",
        "rua": "12212",
        "numero": "2",
        "bairro": "Pinheirinho",
        "cidade": "Curitiba",
        "id": "45dceffc-9d39-45c0-bed2-0c3204813e71"
      },
      "id": "QMI331x"
    },
    {
      "nome": "mai um",
      "id": "994a8ecf-5344-407f-ab97-b663590daa43",
      "cpf": "213.123.123-45",
      "email": "jhessinymattos@gmail.com",
      "endereco": {
        "cep": "22233-888",
        "rua": "12212",
        "numero": "2",
        "bairro": "Pinheirinho",
        "cidade": "Curitiba"
      }
    }
  ]
}